<svg xmlns="http://www.w3.org/2000/svg" viewBox="0 0 1178 3345" width="1178" height="3345">
	<defs>
		<clipPath clipPathUnits="userSpaceOnUse" id="cp1">
			<path d="M-736 -329L1930.67 -329L1930.67 3671L-736 3671L-736 -329Z" />
		</clipPath>
		<radialGradient id="grd1" gradientUnits="userSpaceOnUse"  cx="507.505" cy="847.161" r="343.765">
			<stop offset="0" stop-color="#5f5e5e"  />
			<stop offset="0.511" stop-color="#767676"  />
			<stop offset="1" stop-color="#5f5e5e"  />
		</radialGradient>
		<radialGradient id="grd2" gradientUnits="userSpaceOnUse"  cx="507.505" cy="532.603" r="343.736">
			<stop offset="0" stop-color="#5f5e5e"  />
			<stop offset="0.511" stop-color="#767676"  />
			<stop offset="1" stop-color="#5f5e5e"  />
		</radialGradient>
		<radialGradient id="grd3" gradientUnits="userSpaceOnUse"  cx="507.505" cy="217.857" r="343.765">
			<stop offset="0" stop-color="#5f5e5e"  />
			<stop offset="0.511" stop-color="#767676"  />
			<stop offset="1" stop-color="#5f5e5e"  />
		</radialGradient>
		<clipPath clipPathUnits="userSpaceOnUse" id="cp2">
			<path d="M-736 -329L1930.67 -329L1930.67 3671L-736 3671L-736 -329Z" />
		</clipPath>
	</defs>
	<style>
		tspan { white-space:pre }
		.shp0 { fill: #242323 } 
		.shp1 { fill: #484848 } 
		.shp2 { fill: #2f2f2f } 
		.shp3 { fill: #91c431 } 
		.shp4 { fill: #767676 } 
		.shp5 { fill: #a1a2a2 } 
		.shp6 { fill: #e6232a } 
		.shp7 { fill: url(#grd1) } 
		.shp8 { fill: url(#grd2) } 
		.shp9 { fill: url(#grd3) } 
	</style>
	<g id="g10">
		<g id="g12">
			<g id="Clip-Path: g14" clip-path="url(#cp1)">
				<g id="g14">
					<g id="g20">
						<path id="path22" class="shp0" d="M840.24 1161.8C840.24 1222.99 787.54 1272.64 722.49 1272.64L472.21 1272.64C407.15 1272.64 354.43 1222.99 354.43 1161.8L354.43 233.8C354.43 172.58 407.15 122.98 472.21 122.98L722.49 122.98C787.54 122.98 840.24 172.58 840.24 233.8L840.24 1161.8Z" />
					</g>
					<g id="g24">
						<path id="path26" class="shp1" d="M807.86 1125.17C807.86 1181.55 762.17 1227.24 705.79 1227.24L488.89 1227.24C432.53 1227.24 386.83 1181.55 386.83 1125.17L386.83 270.42C386.83 214.03 432.53 168.32 488.89 168.32L705.79 168.32C762.17 168.32 807.86 214.03 807.86 270.42L807.86 1125.17Z" />
					</g>
					<g id="g32">
						<path id="path34" class="shp2" d="M597.33 280.32C663.55 280.32 710.54 325.72 731.07 350.16C717.87 288.39 663.05 242.04 597.33 242.04C530.98 242.04 475.64 289.34 463.21 352.08C482.44 328.15 529.37 280.32 597.33 280.32Z" />
					</g>
					<g id="g40">
						<path id="path42" class="shp2" d="M597.33 595.01C663.55 595.01 710.54 640.42 731.07 664.88C717.87 603.1 663.05 556.77 597.33 556.77C530.98 556.77 475.64 604.07 463.21 666.78C482.44 642.84 529.37 595.01 597.33 595.01Z" />
					</g>
					<g id="verde">
						<path id="path46" class="shp3" d="M734.15 1008.23C734.15 1083.82 672.88 1145.05 597.33 1145.05C521.78 1145.05 460.54 1083.82 460.54 1008.23C460.54 932.71 521.78 871.46 597.33 871.46C672.88 871.46 734.15 932.71 734.15 1008.23Z" />
					</g>
					<g id="g48">
						<path id="path50" class="shp2" d="M597.33 909.73C663.55 909.73 710.54 955.11 731.07 979.57C717.87 917.79 663.05 871.46 597.33 871.46C530.98 871.46 475.64 918.76 463.21 981.47C482.44 957.55 529.37 909.73 597.33 909.73Z" />
					</g>
					<path id="path52" class="shp0" d="M651.46 3252.22L543.21 3252.22L543.21 1227.24L651.46 1227.24L651.46 3252.22Z" />
					<path id="path54" class="shp1" d="M616.49 3252.22L543.21 3252.22L543.21 1272.64L616.49 1272.64L616.49 3252.22Z" />
					<g id="g56">
						<path id="path58" class="shp0" d="M840.24 229.59L1042.48 229.59C1042.48 229.59 1041.74 319.69 964.82 362.05C887.89 404.37 887.03 508.79 885.08 508.79L840.24 508.79L840.24 229.59Z" />
					</g>
					<g id="g60">
						<path id="path62" class="shp0" d="M840.24 557.87L1042.48 557.87C1042.48 557.87 1041.74 647.95 964.82 690.31C887.89 732.67 887.03 837.04 885.08 837.04L840.24 837.04L840.24 557.87Z" />
					</g>
					<g id="g64">
						<path id="path66" class="shp0" d="M840.24 886.14L1042.48 886.14C1042.48 886.14 1041.74 976.24 964.82 1018.56C887.89 1060.92 887.03 1165.33 885.08 1165.33L840.24 1165.33L840.24 886.14Z" />
					</g>
					<g id="g68">
						<path id="path70" class="shp0" d="M354.43 229.59L152.18 229.59C152.18 229.59 152.91 319.69 229.85 362.05C306.77 404.37 307.64 508.79 309.58 508.79L354.43 508.79L354.43 229.59Z" />
					</g>
					<g id="g72">
						<path id="path74" class="shp0" d="M354.43 557.87L152.18 557.87C152.18 557.87 152.91 647.95 229.85 690.31C306.77 732.67 307.64 837.04 309.58 837.04L354.43 837.04L354.43 557.87Z" />
					</g>
					<g id="g76">
						<path id="path78" class="shp0" d="M354.43 886.14L152.18 886.14C152.18 886.14 152.91 976.24 229.85 1018.56C306.77 1060.92 307.64 1165.33 309.58 1165.33L354.43 1165.33L354.43 886.14Z" />
					</g>
					<g id="g80">
						<path id="path82" class="shp4" d="M734.15 3252.22L460.54 3252.22L493.86 2619.91L700.82 2619.91L734.15 3252.22Z" />
					</g>
					<g id="g84">
						<path id="path86" class="shp5" d="M593.41 3252.22L460.54 3252.22L493.86 2619.91L593.41 2619.91L593.41 3252.22Z" />
					</g>
					<g id="g88">
						<path id="path90" class="shp1" d="M160.07 248.08L354.43 248.08L354.43 294.87L172.99 294.87C172.99 294.87 158.63 273.05 160.07 248.08Z" />
					</g>
					<g id="g92">
						<path id="path94" class="shp1" d="M160.07 576.88L354.43 576.88L354.43 623.69L172.99 623.69C172.99 623.69 158.63 601.85 160.07 576.88Z" />
					</g>
					<g id="g96">
						<path id="path98" class="shp1" d="M160.07 903.05L354.43 903.05L354.43 949.88L172.99 949.88C172.99 949.88 158.63 928.04 160.07 903.05Z" />
					</g>
					<g id="g100">
						<path id="path102" class="shp1" d="M1040.62 248.08L846.27 248.08L846.27 294.87L1027.7 294.87C1027.7 294.87 1042.05 273.05 1040.62 248.08Z" />
					</g>
					<g id="g104">
						<path id="path106" class="shp1" d="M1034.6 576.88L840.24 576.88L840.24 623.69L1021.68 623.69C1021.68 623.69 1036.04 601.85 1034.6 576.88Z" />
					</g>
					<g id="g108">
						<path id="path110" class="shp1" d="M1034.6 903.05L840.24 903.05L840.24 949.88L1021.68 949.88C1021.68 949.88 1036.04 928.04 1034.6 903.05Z" />
					</g>
					<path id="path112" class="shp6" d="M702.71 2655.69L493.86 2655.69L493.86 2619.91L702.71 2619.91L702.71 2655.69Z" />
				</g>
			</g>
		</g>
		<g id="g114">
			<g id="g116">
				<g id="g122">
					<g id="g124">
						<path id="path134" fill-rule="evenodd" class="shp7" d="M453.21 1008.14C453.21 928.2 517.99 863.4 597.94 863.4C677.87 863.4 742.67 928.2 742.67 1008.14C742.67 1088.08 677.87 1152.89 597.94 1152.89C517.99 1152.89 453.21 1088.08 453.21 1008.14ZM461.25 1008.14C461.25 1083.63 522.45 1144.83 597.94 1144.83C673.42 1144.83 734.63 1083.63 734.63 1008.14C734.63 932.65 673.42 871.46 597.94 871.46C522.45 871.46 461.25 932.65 461.25 1008.14Z" />
					</g>
				</g>
			</g>
		</g>
		<g id="g136">
			<g id="g138">
				<g id="g144">
					<g id="g146">
						<path id="path156" fill-rule="evenodd" class="shp8" d="M597.94 548.84C677.87 548.84 742.67 613.64 742.67 693.57C742.67 773.51 677.87 838.29 597.94 838.29C517.99 838.29 453.21 773.51 453.21 693.57C453.21 613.64 517.99 548.84 597.94 548.84ZM461.25 693.57C461.25 769.06 522.45 830.25 597.94 830.25C673.42 830.25 734.63 769.06 734.63 693.57C734.63 618.07 673.42 556.9 597.94 556.9C522.45 556.9 461.25 618.07 461.25 693.57Z" />
					</g>
				</g>
			</g>
		</g>
		<g id="g158">
			<g id="g160">
				<g id="g166">
					<g id="g168">
						<path id="path178" fill-rule="evenodd" class="shp9" d="M597.94 234.1C677.87 234.1 742.67 298.9 742.67 378.84C742.67 458.78 677.87 523.58 597.94 523.58C517.99 523.58 453.21 458.78 453.21 378.84C453.21 298.9 517.99 234.1 597.94 234.1ZM461.25 378.84C461.25 454.33 522.45 515.53 597.94 515.53C673.42 515.53 734.63 454.33 734.63 378.84C734.63 303.37 673.42 242.15 597.94 242.15C522.45 242.15 461.25 303.37 461.25 378.84Z" />
					</g>
				</g>
			</g>
		</g>
		<g id="g180">
			<g id="Clip-Path: g182" clip-path="url(#cp2)">
				<g id="g182">
					<path id="path188" class="shp1" d="M749.91 126.12L448.82 126.12L448.82 89.78L749.91 89.78L749.91 126.12Z" />
				</g>
			</g>
		</g>
	</g>
</svg>